{
  "project_info": {
    "project_number": "223386747878",
    "firebase_url": "https://mogkt-c5c7a.firebaseio.com",
    "project_id": "mogkt-c5c7a",
    "storage_bucket": "mogkt-c5c7a.appspot.com"
  },
  "client": [
    {
      "client_info": {
        "mobilesdk_app_id": "1:223386747878:android:7eef7ba2ce7a0b8d",
        "android_client_info": {
          "package_name": "com.mogkt.mogkt"
        }
      },
      "oauth_client": [
        {
          "client_id": "223386747878-dnuv1hde2f0b58e5qfunbvomqeiuvolg.apps.googleusercontent.com",
          "client_type": 1,
          "android_info": {
            "package_name": "com.mogkt.mogkt",
            "certificate_hash": "ad74b3da67a867f172e61cd9bc0e10628ce44c27"
          }
        },
        {
          "client_id": "223386747878-8ukr3tc213obckrsptd0eqa2a13knm9s.apps.googleusercontent.com",
          "client_type": 3
        }
      ],
      "api_key": [
        {
          "current_key": "AIzaSyBeqEFxLX0U1eQbsY8XD7_3ALBm6BkMH_o"
        }
      ],
      "services": {
        "analytics_service": {
          "status": 1
        },
        "appinvite_service": {
          "status": 2,
          "other_platform_oauth_client": [
            {
              "client_id": "223386747878-8ukr3tc213obckrsptd0eqa2a13knm9s.apps.googleusercontent.com",
              "client_type": 3
            }
          ]
        },
        "ads_service": {
          "status": 2
        }
      }
    }
  ],
  "configuration_version": "1"
}